Tidy Tuesday Exercise – Annie’s Data Analysis Portfolio
…
#There's duplicates for average time spent in ER Dept, so I chose to average them together
care_state |>
  dplyr::group_by(state, measure_name) |>
  dplyr::summarize(n = n()) |>
  dplyr::filter(n > 1)

`summarise()` has grouped output by 'state'. You can override using the
`.groups` argument.

# A tibble: 44 × 3
# Groups:   state [44]
   state measure_name                                                          n
   <chr> <chr>                                                             <int>
 1 AL    Average time patients spent in the emergency department before b…     2
 2 AR    Average time patients spent in the emergency department before b…     2
 3 AZ    Average time patients spent in the emergency department before b…     2
 4 CA    Average time patients spent in the emergency department before b…     2
 5 CO    Average time patients spent in the emergency department before b…     2
 6 CT    Average time patients spent in the emergency department before b…     2
 7 DE    Average time patients spent in the emergency department before b…     2
 8 FL    Average time patients spent in the emergency department before b…     2
 9 GA    Average time patients spent in the emergency department before b…     2
10 HI    Average time patients spent in the emergency department before b…     2
# ℹ 34 more rows
…
